<?xml version="1.0" encoding="utf-8"?>
<!-- Generator: Adobe Illustrator 20.1.0, SVG Export Plug-In . SVG Version: 6.00 Build 0)  -->
<svg version="1.1" id="Laag_1" xmlns="http://www.w3.org/2000/svg" xmlns:xlink="http://www.w3.org/1999/xlink" x="0px" y="0px"
	 width="167.1px" height="57.2px" viewBox="0 0 167.1 57.2" style="enable-background:new 0 0 167.1 57.2;" xml:space="preserve">
<g id="icomoon-ignore">
</g>
<path d="M163.3,28.9c0,13.5-11.3,24.6-25.1,24.6c-13.9,0-25.1-11-25.1-24.6c0-13.5,11.3-24.6,25.1-24.6
	C152,4.3,163.3,15.3,163.3,28.9z M109.1,28.9c0,13.5-11.3,24.6-25.1,24.6c-13.8,0-25.1-11-25.1-24.6C58.9,15.3,70.2,4.3,84,4.3
	C97.9,4.3,109.1,15.3,109.1,28.9z M55.1,28.9c0,13.5-11.3,24.6-25.1,24.6S4.8,42.4,4.8,28.9c0-13.5,11.3-24.6,25.1-24.6
	S55.1,15.3,55.1,28.9z M167.1,28.9c0-15.6-13-28.3-28.9-28.3c-12.4,0-23,7.7-27.1,18.4C107,8.3,96.4,0.6,84,0.6
	c-12.4,0-22.9,7.6-27,18.3C52.8,8.2,42.3,0.6,29.9,0.6C14,0.6,1,13.3,1,28.9c0,15.6,13,28.3,28.9,28.3c12.4,0,22.9-7.6,27-18.3
	c4.1,10.7,14.7,18.3,27,18.3c12.4,0,23-7.7,27.1-18.4c4.1,10.7,14.7,18.4,27.1,18.4C154.1,57.2,167.1,44.5,167.1,28.9z"/>
<path d="M31.1,42.5c2.3,0,5.5-0.1,9.9-1.2V26.5H30.4v5h4v5.3c-0.6,0.3-1.5,0.5-2.4,0.5c-5,0-8.5-3.2-8.5-8.4c0-6.2,4.5-8.6,10-8.6
	c1.6,0,4.1,0.4,6.2,1.7l0.5-5.8c-2.5-1-6-1.2-7.7-1.2c-9.4,0-16.1,3.8-16.1,13.8C16.4,38.9,24.3,42.5,31.1,42.5L31.1,42.5z"/>
<path d="M88.4,34c0,2.7-2.7,3-5.3,3h-2.1v-6.1h2.2C85.6,30.9,88.4,31.1,88.4,34L88.4,34z M87.7,23.4c0,2.2-2.4,2.8-4.7,2.8h-2v-5.4
	H83C85.4,20.8,87.7,21,87.7,23.4L87.7,23.4z M90.1,28.6L90.1,28.6c3-1.1,4.7-2.9,4.7-6.2c0-4.5-3.7-6.6-8.7-6.6H73.8v26.1h11.3
	c4.8,0,10.4-1.3,10.4-7.6C95.5,31.2,93.6,29.3,90.1,28.6L90.1,28.6z"/>
<path d="M130.1,42.3h18.6V37h-11.3V15.5h-7.3L130.1,42.3L130.1,42.3z"/>
</svg>
